Mini project 2 – ISS Data Visualiation and Analysis
…
You can visualize this stuff in many different ways! A line chart, a slope graph, a bump chart, a map, and so on. Do something neat!

Here are some examples of using different {dplyr} functions to filter, group, and summarize the data. PLEASE DON’T USE THESE VERBATIM. I don’t want to see a plot showing the count of refugees in Spain since 1990 or a plot of asylum seekers from Cambodia and Myanmar since 2000 in your final project (since I show that exact code below). Use these as general ideas.

library(tidyverse)
unhcr_refugees <- read_csv("data/unhcr_refugees.csv")

Total refugees in Spain every year since 1990

refugees_in_spain <- unhcr_refugees |> 
  filter(coa_iso == "ESP", year >= 1990) |> 
  group_by(year) |> 
  summarize(total = sum(refugees))
refugees_in_spain
## # A tibble: 35 × 2
##     year total
##    <dbl> <dbl>
##  1  1990  8303
##  2  1991  4005
##  3  1992  4040
##  4  1993  4990
##  5  1994  5351
##  6  1995  5840
##  7  1996  5672
##  8  1997  5512
##  9  1998  5918
## 10  1999  6708
## # ℹ 25 more rows

Changes in the total number of refugees in Spain every year since 1990

refugees_in_spain_diff <- unhcr_refugees |> 
  filter(coa_iso == "ESP", year >= 1990) |> 
  group_by(year) |> 
  summarize(total = sum(refugees)) |> 
  mutate(diff = total - lag(total))  # Subtract the previous value from each value
refugees_in_spain_diff
## # A tibble: 35 × 3
##     year total  diff
##    <dbl> <dbl> <dbl>
##  1  1990  8303    NA
##  2  1991  4005 -4298
##  3  1992  4040    35
##  4  1993  4990   950
##  5  1994  5351   361
##  6  1995  5840   489
##  7  1996  5672  -168
##  8  1997  5512  -160
##  9  1998  5918   406
## 10  1999  6708   790
## # ℹ 25 more rows

Total asylum seekers from Cambodia and Myanmar over time

refugees_from_se_asia <- unhcr_refugees |> 
  filter(coo_name %in% c("Cambodia", "Myanmar"), year >= 2000) |> 
  group_by(coo_name, year) |> 
  summarize(total = sum(asylum_seekers))
refugees_from_se_asia
## # A tibble: 50 × 3
## # Groups:   coo_name [2]
##    coo_name  year total
##    <chr>    <dbl> <dbl>
##  1 Cambodia  2000   301
##  2 Cambodia  2001   304
##  3 Cambodia  2002   465
##  4 Cambodia  2003   461
##  5 Cambodia  2004   501
##  6 Cambodia  2005   856
##  7 Cambodia  2006   668
##  8 Cambodia  2007   415
##  9 Cambodia  2008   212
## 10 Cambodia  2009   220
## # ℹ 40 more rows

Top 5 countries of origin in France (could be used in something like a bump chart)

top_coos_in_france <- unhcr_refugees |> 
  filter(coa_name == "France", year >= 2014) |> 
  group_by(year, coo_name) |> 
  summarize(total = sum(refugees)) |> 
  group_by(year) |> 
  slice_max(total, n = 5)
top_coos_in_france
## # A tibble: 55 × 3
## # Groups:   year [11]
##     year coo_name                             total
##    <dbl> <chr>                                <dbl>
##  1  2014 Unknown                              60000
##  2  2014 Sri Lanka                            23966
##  3  2014 Dem. Rep. of the Congo               13727
##  4  2014 Russian Federation                   13644
##  5  2014 Serbia and Kosovo: S/RES/1244 (1999) 12119
##  6  2015 Unknown                              68443
##  7  2015 Sri Lanka                            24220
##  8  2015 Russian Federation                   14195
##  9  2015 Dem. Rep. of the Congo               14182
## 10  2015 Serbia and Kosovo: S/RES/1244 (1999) 12500
## # ℹ 45 more rows
…
