Mapping data to graphics – ISS Data Visualiation and Analysis
…
Finally, we can include even more variables! We have a lot of aesthetics we can work with (size, alpha, color, fill, linetype, etc.), as well as facets, so let’s add one more to show the duration of the awarded grant.

First we’ll make another smaller summarized dataset, grouping by year, program, and duration and summarizing the total, average, and number of awards.

Code

bbc_year_size_duration <- bbc |> 
  group_by(grant_year, grant_program, grant_duration_text) |> 
  summarize(total = sum(grant_amount),
            avg = mean(grant_amount),
            number = n())

bbc_year_size_duration
## # A tibble: 21 × 6
## # Groups:   grant_year, grant_program [8]
##    grant_year grant_program grant_duration_text    total    avg number
##         <dbl> <chr>         <chr>                  <dbl>  <dbl>  <int>
##  1       2016 Main Grants   2 years                97355 48678.      2
##  2       2016 Main Grants   3 years             16308231 86746.    188
##  3       2016 Small Grants  3 years               884902 28545.     31
##  4       2017 Main Grants   1 year                 59586 29793       2
##  5       2017 Main Grants   2 years               825732 82573.     10
##  6       2017 Main Grants   3 years             47617605 90528.    526
##  7       2017 Small Grants  1 year                 10000 10000       1
##  8       2017 Small Grants  2 years               245227 18864.     13
##  9       2017 Small Grants  3 years             13636128 27716.    492
## 10       2018 Main Grants   1 year                118134 59067       2
## # ℹ 11 more rows
…
