Amounts and proportions – ISS Data Visualiation and Analysis
…
Neat! There are some really interesting trends here. Most obvious, probably, is that very few people are born on New Year’s Day, July 4th, Halloween, Thanksgiving, and Christmas.

Code

avg_births_month_day |> 
  arrange(avg_births)
## # A tibble: 366 × 3
## # Groups:   month [12]
##    month    date_of_month_categorical avg_births
##    <ord>    <fct>                          <dbl>
##  1 December 25                             6601.
##  2 January  1                              7827.
##  3 December 24                             8103.
##  4 July     4                              8825.
##  5 January  2                              9356.
##  6 December 26                             9599.
##  7 November 27                             9770.
##  8 November 23                             9919.
##  9 November 25                            10001 
## 10 October  31                            10030.
## # ℹ 356 more rows

The days with the highest average are in mid-September (lol my birthday is #2), likely because that’s about 9 months after the first week of January. July 7th at #7 is odd and I have no idea why it might be so popular 🤷.

Code

avg_births_month_day |> 
  arrange(desc(avg_births))
## # A tibble: 366 × 3
## # Groups:   month [12]
##    month     date_of_month_categorical avg_births
##    <ord>     <fct>                          <dbl>
##  1 September 9                             12344.
##  2 September 19                            12285.
##  3 September 12                            12282.
##  4 September 17                            12201.
##  5 September 10                            12190.
##  6 September 20                            12162.
##  7 July      7                             12147.
##  8 September 15                            12126.
##  9 September 16                            12114.
## 10 September 18                            12112.
## # ℹ 356 more rows
…
