Space – ISS Data Visualiation and Analysis
…
We have a bunch of columns here, but we care about two in particular: life expectancy, and the ISO3 code. This three-letter code is a standard system for identifying countries (see the full list here), and that column will let us combine this World Bank data with the global shapefile, which also has a column for the ISO3 code.

NoteWorld capitals

We also have columns for the latitude and longitude for each capital, so we could theoretically convert those to a geometry column with st_as_sf() and plot world capitals, which would be neat, but we won’t do that now.

Let’s clean up the WDI data by shrinking it down substantially so we only join the one life_expectancy column that we care about:

Code

wdi_clean_small <- wdi_raw |> 
  select(life_expectancy, iso3c)
wdi_clean_small
## # A tibble: 266 × 2
##    life_expectancy iso3c
##              <dbl> <chr>
##  1            62.3 AFG  
##  2            61.7 AFE  
##  3            56.0 AFW  
##  4            78.4 ALB  
##  5            75.2 DZA  
##  6            72.7 ASM  
##  7            84.5 AND  
##  8            61.0 AGO  
##  9            76.9 ATG  
## 10            70.7 ARB  
## # ℹ 256 more rows
…
