Time – ISS Data Visualiation and Analysis
…
The symbol column is the ID of the variable from FRED , date is… the date, and price is the value. These columns are called symbol and price because the {tidyquant} package was designed to get and process stock data, so you’d typically see stock symbols (like AAPL or MSFT) and stock prices. When working with FRED data, the price column shows the value of whatever you’re interested in—it’s not technically a price (so unemployment claims, inflation rates, and GDP values are still called price).

Right now, our fred_raw dataset has only 3 columns, but nearly 3,000 rows since the six indicators we got from the server are all stacked on top of each other. To actually work with these, we need to filter the raw data so that it only includes the indicators we’re interested in. For instance, if we want to plot retail sales, we need to select only the rows where the symbol is RSXFSN. Make a smaller dataset with filter() to do that:

Code

retail_sales <- fred_raw |> 
  filter(symbol == "RSXFSN")

retail_sales
## # A tibble: 408 × 3
##    symbol date        price
##    <chr>  <date>      <dbl>
##  1 RSXFSN 1992-01-01 126717
##  2 RSXFSN 1992-02-01 127022
##  3 RSXFSN 1992-03-01 137978
##  4 RSXFSN 1992-04-01 142314
##  5 RSXFSN 1992-05-01 147550
##  6 RSXFSN 1992-06-01 146991
##  7 RSXFSN 1992-07-01 147657
##  8 RSXFSN 1992-08-01 147901
##  9 RSXFSN 1992-09-01 143808
## 10 RSXFSN 1992-10-01 151260
## # ℹ 398 more rows

If multiple variables have the same spacing (annual, quarterly, monthly, weekly), you can use filter to select all of them and then the use pivot_wider() or spread() to make separate columns for each. Inflation, unemployment, and retail sales are all monthly, so we can make a dataset for just those:

Code

fred_monthly_things <- fred_raw |> 
  filter(symbol %in% c("FPCPITOTLZGUSA", "UNRATE", "RSXFSN")) |> 
  # Convert the symbol column into multiple columns, using the "prices" for values
  pivot_wider(names_from = symbol, values_from = price)

fred_monthly_things
## # A tibble: 433 × 4
##    date       RSXFSN FPCPITOTLZGUSA UNRATE
##    <date>      <dbl>          <dbl>  <dbl>
##  1 1992-01-01 126717           3.03    7.3
##  2 1992-02-01 127022          NA       7.4
##  3 1992-03-01 137978          NA       7.4
##  4 1992-04-01 142314          NA       7.4
##  5 1992-05-01 147550          NA       7.6
##  6 1992-06-01 146991          NA       7.8
##  7 1992-07-01 147657          NA       7.7
##  8 1992-08-01 147901          NA       7.6
##  9 1992-09-01 143808          NA       7.6
## 10 1992-10-01 151260          NA       7.3
## # ℹ 423 more rows

But wait! There’s a problem! The inflation rate we got isn’t actually monthly—it seems to be annual, which explains all the NAs. Let’s fix it by not including it. We’ll also rename the columns so they’re easier to work with

Code

fred_monthly_things <- fred_raw |> 
  filter(symbol %in% c("UNRATE", "RSXFSN")) |> 
  # Convert the symbol column into multiple columns, using the "prices" for values
  pivot_wider(names_from = symbol, values_from = price) |> 
  rename(unemployment = UNRATE, retail_sales = RSXFSN)

fred_monthly_things
## # A tibble: 433 × 3
##    date       retail_sales unemployment
##    <date>            <dbl>        <dbl>
##  1 1992-01-01       126717          7.3
##  2 1992-02-01       127022          7.4
##  3 1992-03-01       137978          7.4
##  4 1992-04-01       142314          7.4
##  5 1992-05-01       147550          7.6
##  6 1992-06-01       146991          7.8
##  7 1992-07-01       147657          7.7
##  8 1992-08-01       147901          7.6
##  9 1992-09-01       143808          7.6
## 10 1992-10-01       151260          7.3
## # ℹ 423 more rows
…
That’s great and almost good enough to publish! We can add one additional layer of information onto the plot and highlight when recessions start and end. We included a recessions variable (USREC) when we got data from FRED, so let’s see what it looks like:

Code

fred_raw |> 
  filter(symbol == "USREC")
## # A tibble: 433 × 3
##    symbol date       price
##    <chr>  <date>     <dbl>
##  1 USREC  1990-01-01     0
##  2 USREC  1990-02-01     0
##  3 USREC  1990-03-01     0
##  4 USREC  1990-04-01     0
##  5 USREC  1990-05-01     0
##  6 USREC  1990-06-01     0
##  7 USREC  1990-07-01     0
##  8 USREC  1990-08-01     1
##  9 USREC  1990-09-01     1
## 10 USREC  1990-10-01     1
## # ℹ 423 more rows

This is monthly data that shows a 1 if we were in a recession that month and a 0 if we weren’t. The Fed doesn’t decide when recessions happen—the National Bureau of Economic Research (NBER) does, and they have specific guidelines for defining one. We’re probably in one right now, but there’s not enough data for NBER to formally declare it yet.

This data is long and tidy, but that makes it harder to work with given our GDP. We want the start and end dates for each recession so that we can shade those areas on the plot. To find those dates, we need to do a little data reshaping. First, we’ll create a temporary variable that marks if there was a switch from 0 to 1 or 1 to 0 in a given row by looking at the previous row

Code

recessions_tidy <- fred_raw |> 
  filter(symbol == "USREC") |> 
  mutate(recession_change = price - lag(price))
recessions_tidy
## # A tibble: 433 × 4
##    symbol date       price recession_change
##    <chr>  <date>     <dbl>            <dbl>
##  1 USREC  1990-01-01     0               NA
##  2 USREC  1990-02-01     0                0
##  3 USREC  1990-03-01     0                0
##  4 USREC  1990-04-01     0                0
##  5 USREC  1990-05-01     0                0
##  6 USREC  1990-06-01     0                0
##  7 USREC  1990-07-01     0                0
##  8 USREC  1990-08-01     1                1
##  9 USREC  1990-09-01     1                0
## 10 USREC  1990-10-01     1                0
## # ℹ 423 more rows
…
We can divide this trend into its main components: the trend, the seasonality, and stuff that’s not explained by either the trend or the seasonality. To do that, we need to first modify our little dataset and tell it to be a time-enabled data frame (a tsibble) that is indexed by the year+month for each row. We’ll create a new column called year_month and then use as_tsibble() to tell R that this is really truly dealing with time:

Code

library(tsibble)  # For embedding time things into data frames

retail_sales <- fred_raw |> 
  filter(symbol == "RSXFSN") |> 
  mutate(year_month = yearmonth(date)) |> 
  as_tsibble(index = year_month)
retail_sales
## # A tsibble: 408 x 4 [1M]
##    symbol date        price year_month
##    <chr>  <date>      <dbl>      <mth>
##  1 RSXFSN 1992-01-01 126717   1992 Jan
##  2 RSXFSN 1992-02-01 127022   1992 Feb
##  3 RSXFSN 1992-03-01 137978   1992 Mar
##  4 RSXFSN 1992-04-01 142314   1992 Apr
##  5 RSXFSN 1992-05-01 147550   1992 May
##  6 RSXFSN 1992-06-01 146991   1992 Jun
##  7 RSXFSN 1992-07-01 147657   1992 Jul
##  8 RSXFSN 1992-08-01 147901   1992 Aug
##  9 RSXFSN 1992-09-01 143808   1992 Sep
## 10 RSXFSN 1992-10-01 151260   1992 Oct
## # ℹ 398 more rows
…
The decomposition model we create is kind of boring and useless—it’s all stored in a single cell.

We can extract the different components of the decomposition with the components() function:

Code

retail_components <- components(retail_model)
retail_components
## # A dable: 408 x 7 [1M]
## # Key:     .model [1]
## # :        price = trend + season_year + remainder
##    .model year_month  price   trend season_year remainder season_adjust
##    <chr>       <mth>  <dbl>   <dbl>       <dbl>     <dbl>         <dbl>
##  1 stl      1992 Jan 126717 143762.    -21022.   3977.          147739.
##  2 stl      1992 Feb 127022 144283.    -22208.   4947.          149230.
##  3 stl      1992 Mar 137978 144804.     -1885.  -4941.          139863.
##  4 stl      1992 Apr 142314 145324.     -3010.     -0.717       145324.
##  5 stl      1992 May 147550 145875.      4981.  -3306.          142569.
##  6 stl      1992 Jun 146991 146425.      2646.  -2080.          144345.
##  7 stl      1992 Jul 147657 146976.        62.1   619.          147595.
##  8 stl      1992 Aug 147901 147553.      3912.  -3564.          143989.
##  9 stl      1992 Sep 143808 148131.     -5296.    973.          149104.
## 10 stl      1992 Oct 151260 148708.        35.2  2517.          151225.
## # ℹ 398 more rows
…
retail_components_tidy
## # A tsibble: 1,632 x 4 [1M]
## # Key:       .model, component [4]
##    .model year_month component     value
##    <chr>       <mth> <fct>         <dbl>
##  1 stl      1992 Jan Actual data 126717 
##  2 stl      1992 Jan Trend       143762.
##  3 stl      1992 Jan Seasonality -21022.
##  4 stl      1992 Jan Remainder     3977.
##  5 stl      1992 Feb Actual data 127022 
##  6 stl      1992 Feb Trend       144283.
##  7 stl      1992 Feb Seasonality -22208.
##  8 stl      1992 Feb Remainder     4947.
##  9 stl      1992 Mar Actual data 137978 
## 10 stl      1992 Mar Trend       144804.
## # ℹ 1,622 more rows
…
