Week 1 tips and FAQs – ISS Data Visualiation and Analysis
…
There are 47 penguins on Torgersen Island with an average weight of 3709 g; 123 penguins on Dream Island with an average weight of 3719 g; and so on.

If you group by island and body_mass, R will create groups of all the unique combinations of island and body mass: all the penguins on Biscoe Island that weigh 2850 grams, all the penguins on Biscoe Island that weight 2900 grams, all the penguins on Biscoe Island that weight 2925 gams, and so on. Then when you use summarize(), it will calculate the average for each of those groups:

penguins |> 
  group_by(body_mass, island) |> 
  summarize(
    avg_weight = mean(body_mass),
    num_penguins = n()
  )
## # A tibble: 148 × 4
## # Groups:   body_mass [93]
##    body_mass island    avg_weight num_penguins
##        <int> <fct>          <dbl>        <int>
##  1      2700 Dream           2700            1
##  2      2850 Biscoe          2850            2
##  3      2900 Biscoe          2900            1
##  4      2900 Dream           2900            2
##  5      2900 Torgersen       2900            1
##  6      2925 Biscoe          2925            1
##  7      3000 Dream           3000            2
##  8      3050 Dream           3050            1
##  9      3050 Torgersen       3050            3
## 10      3075 Biscoe          3075            1
## # ℹ 138 more rows
…
