Week 3 FAQs – ISS Data Visualiation and Analysis
…
Both of those approaches work, but it’s tedious!

And if you want to plot regional profits over time, good luck. There’s no easy way to do that with ggplot.

The long/tidy version of that wide data would look like this, with a column named “Region” and a column named “Year” and a column named “Profit”:

profits_long <- profits_wide |> 
  pivot_longer(-Region, names_to = "Year", values_to = "Profit")

profits_long
## # A tibble: 24 × 3
##    Region Year  Profit
##    <chr>  <chr>  <int>
##  1 North  2020     394
##  2 North  2021     755
##  3 North  2022     836
##  4 North  2023     994
##  5 North  2024     684
##  6 North  2025     322
##  7 South  2020     958
##  8 South  2021     510
##  9 South  2022     712
## 10 South  2023     380
## # ℹ 14 more rows
…
