…
## Recreate data summary

Right now there's a row for each candidate in each county in each year, which means there are `{r} nrow(county_results)` rows to deal with. That's too much data to plot. We need to condense that down with `group_by()` and `summarize()`.

Use `filter()`, `group_by()` and `summarize()` and `mutate()` to create a data frame named `state_prop_gop` that looks like this:

```r
#> # A tibble: 357 × 6
#> # Groups:   state, year_cat [357]
#>    state   year_cat region candidatevotes_total totalvotes_total prop_gop
#>    <chr>   <fct>    <chr>                 <dbl>            <dbl>    <dbl>
#>  1 Alabama 2000     South                944409          1672551    0.565
#>  2 Alabama 2004     South               1176394          1883415    0.625
#>  3 Alabama 2008     South               1266546          2099819    0.603
#>  4 Alabama 2012     South               1255925          2070353    0.607
#>  5 Alabama 2016     South               1318250          2123367    0.621
#>  6 Alabama 2020     South               1441170          2323282    0.620
#>  7 Alabama 2024     South               1462616          2264972    0.646
#>  8 Alaska  2000     West                 167398           285530    0.586
#>  9 Alaska  2004     West                 292267           488693    0.598
#> 10 Alaska  2008     West                 193841           326197    0.594
#> # ℹ 347 more rows
#> # ℹ Use `print(n = ...)` to see more rows
```
…
