…
## Intake type over time

Are there seasonal patterns in the types of animal intake at the shelter?

### Recreate data summary

Use `group_by()` and `summarize()` and `mutate()` to create a data frame named `month_intake_props` that looks like the output below.

You'll need to group by two variables to make the summary. IMPORTANTLY you'll also need to add another `group_by()` in between `summarize()` and `mutate()`, otherwise, R will calculate percentages in unexpected groups.

If you want the percentages of months to add up to 100% in each intake type (i.e. the percent of adoptions in January, February, March, etc.), you'll want to group by `intake_type` before calculating the proportion; if you want the percentages of intake types to add up to 100% in each month (i.e. the percent of all different intake types in January), you'll want to group by `intake_month` before calculating the proportion.

```
# A tibble: 36 × 4
# Groups:   intake_type [3]
   intake_type     intake_month total proportion
   <chr>           <ord>        <int>      <dbl>
 1 Owner Surrender January        196     0.0844
 2 Owner Surrender February       240     0.103 
 3 Owner Surrender March          254     0.109 
 4 Owner Surrender April          189     0.0814
 5 Owner Surrender May            206     0.0887
 6 Owner Surrender June           190     0.0818
 7 Owner Surrender July           165     0.0710
 8 Owner Surrender August         214     0.0921
 9 Owner Surrender September      175     0.0753
10 Owner Surrender October        167     0.0719
# ℹ 26 more rows
# ℹ Use `print(n = ...)` to see more rows
```
…
