…
## States and divisions

### Join data

Use `left_join()` to merge the region and division names in `regions_info` and `divisions_info` into `states`. Create a new data frame named `states_with_regions` that looks like this:

```r
#> Simple feature collection with 51 features and 7 fields
#> Geometry type: MULTIPOLYGON
#> Dimension:     XY
#> Bounding box:  xmin: -179.1473 ymin: 18.91314 xmax: 179.7785 ymax: 71.35256
#> Geodetic CRS:  NAD83
#> # A tibble: 51 × 8
#>    RGN_ID DIV_ID STATEFP STUSPS STNAME REGION DIVISION                  geometry
#>     <dbl>  <dbl> <chr>   <chr>  <chr>  <chr>  <chr>           <MULTIPOLYGON [°]>
#>  1      4      8 35      NM     New M… West   Mountain (((-109.0502 31.48, -109…
#>  2      3      7 48      TX     Texas  South  West So… (((-106.6455 31.89867, -…
#>  3      3      6 21      KY     Kentu… South  East So… (((-89.40565 36.52817, -…
#>  4      2      3 39      OH     Ohio   Midwe… East No… (((-82.7328 41.60432, -8…
#>  5      3      5 13      GA     Georg… South  South A… (((-85.60516 34.98468, -…
#>  6      3      7 05      AR     Arkan… South  West So… (((-94.61792 36.49941, -…
#>  7      4      9 41      OR     Oregon West   Pacific  (((-124.5524 42.84057, -…
#>  8      1      2 42      PA     Penns… North… Middle … (((-80.51989 40.90666, -…
#>  9      2      4 29      MO     Misso… Midwe… West No… (((-95.77355 40.5782, -9…
#> 10      3      5 37      NC     North… South  South A… (((-75.72681 35.93584, -…
#> # ℹ 41 more rows
```
…
# Do stuff here
```

## SNAP use across states

### Summarize data

Use `group_by()` and `summarize()` and `mutate()` to calculate three things in a new dataset named `snap_by_state`:

1. The total number of households in each state
2. The total number of SNAP-receiving households in each state
3. The proportion of households that receive SNAP benefits

```r
#> # A tibble: 52 × 4
#>    STUSPS households    snap prop_snap
#>    <chr>       <dbl>   <dbl>     <dbl>
#>  1 AK         267865   27289    0.102 
#>  2 AL        1969105  267155    0.136 
#>  3 AR        1189160  124380    0.105 
#>  4 AZ        2796790  282772    0.101 
#>  5 CA       13434847 1526052    0.114 
#>  6 CO        2325576  186848    0.0803
#>  7 CT        1420170  165735    0.117 
#>  8 DC         321556   42590    0.132 
#>  9 DE         396209   43021    0.109 
#> 10 FL        8550911 1078978    0.126 
#> # ℹ 42 more rows
```
…
Prepare your data for plotting by doing these things:

1. Create a new dataset based on `snap_2023` and call it something like `snap_2023_props` (or whatever you want). Use `mutate()` to calculate the proportion of households that receive SNAP benefits in each county in `snap_2023`. You don't need to group or summarize—the data is already measured at a county level.

2. Take `counties` and join your new `snap_2023_props` to it with `left_join()`. Name the new dataset something like `counties_with_snap` (or whatever you want).

3. Filter that new dataset to include just one division (any division except Mountain, since that's the example here). Name it something like `counties_DIVISION` (but use the division name, not `DIVISION`)

4. Create a new dataset named `state_DIVISON` (but use the division name, not `DIVISION`) that's based on `states_with_regions`, but filtered to only include the division you're interested in.

In the end, you should have a few new datasets that look something like this:

```r
snap_2023_props
#> # A tibble: 3,222 × 11
#>    GEOID NAME_FULL               STATEFP STUSPS STNAME REGION DIVISION total_pop
#>    <chr> <chr>                   <chr>   <chr>  <chr>  <chr>  <chr>        <dbl>
#>  1 01001 Autauga County, Alabama 01      AL     Alaba… South  East So…     59285
#>  2 01003 Baldwin County, Alabama 01      AL     Alaba… South  East So…    239945
#>  3 01005 Barbour County, Alabama 01      AL     Alaba… South  East So…     24757
#>  4 01007 Bibb County, Alabama    01      AL     Alaba… South  East So…     22152
#>  5 01009 Blount County, Alabama  01      AL     Alaba… South  East So…     59292
#>  6 01011 Bullock County, Alabama 01      AL     Alaba… South  East So…     10157
#>  7 01013 Butler County, Alabama  01      AL     Alaba… South  East So…     18807
#>  8 01015 Calhoun County, Alabama 01      AL     Alaba… South  East So…    116141
#>  9 01017 Chambers County, Alaba… 01      AL     Alaba… South  East So…     34450
#> 10 01019 Cherokee County, Alaba… 01      AL     Alaba… South  East So…     25224
#> # ℹ 3,212 more rows
#> # ℹ 3 more variables: total_households <dbl>, snap_households <dbl>,
#> #   prop_snap <dbl>

counties_mountain
#> Simple feature collection with 281 features and 13 fields
#> Geometry type: MULTIPOLYGON
#> Dimension:     XY
#> Bounding box:  xmin: -120.0057 ymin: 31.33218 xmax: -102.0415 ymax: 49.00115
#> Geodetic CRS:  NAD83
#> # A tibble: 281 × 14
#>    GEOID NAME   NAMELSAD REGION DIVISION STUSPS STNAME                  geometry
#>  * <chr> <chr>  <chr>    <chr>  <chr>    <chr>  <chr>         <MULTIPOLYGON [°]>
#>  1 08089 Otero  Otero C… West   Mountain CO     Color… (((-104.0594 37.87501, -…
#>  2 32003 Clark  Clark C… West   Mountain NV     Nevada (((-115.8969 36.84208, -…
#>  3 04007 Gila   Gila Co… West   Mountain AZ     Arizo… (((-111.7207 34.1617, -1…
#>  4 16065 Madis… Madison… West   Mountain ID     Idaho  (((-111.9775 43.79724, -…
#>  5 16049 Idaho  Idaho C… West   Mountain ID     Idaho  (((-116.7945 45.85614, -…
#>  6 08065 Lake   Lake Co… West   Mountain CO     Color… (((-106.5803 39.10216, -…
#>  7 30051 Liber… Liberty… West   Mountain MT     Monta… (((-111.409 48.21954, -1…
#>  8 08001 Adams  Adams C… West   Mountain CO     Color… (((-105.0533 39.85676, -…
#>  9 35011 De Ba… De Baca… West   Mountain NM     New M… (((-104.8917 34.34704, -…
#> 10 04015 Mohave Mohave … West   Mountain AZ     Arizo… (((-114.7556 36.08717, -…
#> # ℹ 271 more rows
#> # ℹ 6 more variables: NAME_FULL <chr>, STATEFP <chr>, total_pop <dbl>,
#> #   total_households <dbl>, snap_households <dbl>, prop_snap <dbl>
…
