…
# Add a categorical version of the season column
theoffice <- read_csv("data/theoffice.csv") |> 
  mutate(season_cat = factor(season))
```

## Most common words

### Tokenize words and remove stop words

Right now the data contains a row for each line of dialogue. We need to split those lines into indvidual words. Also, there are a lot of meaningless words like "the" and "and" in the text and we need to remove those to make cleaner, more meaningful visualizations.

Use `unnest_tokens()` and `anti_join()` to create a data frame named `all_words` that looks like this:

```r
#> # A tibble: 170,545 × 5
#>    season episode episode_name character word       
#>     <dbl>   <dbl> <chr>        <chr>     <chr>      
#>  1      1       1 Pilot        Michael   jim        
#>  2      1       1 Pilot        Michael   quarterlies
#>  3      1       1 Pilot        Michael   library    
#>  4      1       1 Pilot        Jim       told       
#>  5      1       1 Pilot        Jim       close      
#>  6      1       1 Pilot        Michael   master     
#>  7      1       1 Pilot        Michael   guidance   
#>  8      1       1 Pilot        Michael   grasshopper
#>  9      1       1 Pilot        Jim       called     
#> 10      1       1 Pilot        Jim       yeah       
#> # ℹ 170,535 more rows
```
…
$$
\begin{aligned}
\operatorname{tf}(\text{term}) &= \frac{n_{\text{term}}}{n_{\text{terms spoken by character}}} \\
\operatorname{idf}(\text{term}) &= \ln{\left(\frac{n_{\text{characters}}}{n_{\text{characters speaking term}}}\right)} \\
\operatorname{tf-idf}(\text{term}) &= \operatorname{tf}(\text{term}) \times \operatorname{idf}(\text{term})
\end{aligned}
$$

Fortunately you don't need to remember that formula. The `bind_tf_idf()` function will calculate this for you. The higher the tf-idf value, the more unique the term is in the "document" (or words spoken by a character), but these numbers are unitless---you can't convert them to a percentage or anything.

Take the `all_words` data frame and use `filter()`, `count()`, and `bind_tf_idf()` on create a data frame named `character_tf_idf` that looks like this:

```r
#> # A tibble: 23,819 × 6
#>    character word       n      tf   idf tf_idf
#>    <chr>     <chr>  <int>   <dbl> <dbl>  <dbl>
#>  1 Michael   yeah     563 0.0135      0      0
#>  2 Michael   hey      501 0.0120      0      0
#>  3 Jim       yeah     385 0.0240      0      0
#>  4 Michael   dwight   354 0.00848     0      0
#>  5 Pam       yeah     341 0.0267      0      0
#>  6 Michael   people   337 0.00807     0      0
#>  7 Michael   pam      327 0.00783     0      0
#>  8 Jim       hey      312 0.0194      0      0
#>  9 Dwight    jim      293 0.0120      0      0
#> 10 Michael   gonna    288 0.00690     0      0
#> # ℹ 23,809 more rows
```
…
